<svg width="104" height="104" viewBox="0 0 104 104" fill="none" xmlns="http://www.w3.org/2000/svg">
<path d="M64.8917 13.0824L69.0517 5.57702C69.1049 5.48085 69.1386 5.37514 69.151 5.26593C69.1633 5.15672 69.1541 5.04614 69.1237 4.94051C69.0933 4.83489 69.0424 4.73628 68.9739 4.65032C68.9054 4.56436 68.8207 4.49273 68.7245 4.43952C68.6283 4.38631 68.5226 4.35257 68.4134 4.34022C68.3042 4.32786 68.1936 4.33714 68.088 4.36752C67.9824 4.3979 67.8838 4.44879 67.7978 4.51728C67.7118 4.58577 67.6402 4.67052 67.587 4.76669L63.3837 12.35C59.7955 10.7768 55.9201 9.96455 52.0022 9.96455C48.0843 9.96455 44.2089 10.7768 40.6207 12.35L36.4173 4.76669C36.3099 4.57131 36.1292 4.42662 35.9151 4.36446C35.701 4.30229 35.4709 4.32773 35.2755 4.43519C35.0801 4.54264 34.9354 4.72331 34.8733 4.93745C34.8111 5.15158 34.8366 5.38164 34.944 5.57702L39.104 13.0824C35.1459 15.0345 31.8018 18.0388 29.4383 21.766C27.0748 25.4931 25.7833 29.799 25.7053 34.2117H78.299C78.2203 29.7981 76.9274 25.4915 74.5624 21.7643C72.1973 18.0371 68.8514 15.0333 64.8917 13.0824ZM39.8667 24.5874C39.432 24.5874 39.007 24.4584 38.6456 24.2168C38.2843 23.9752 38.0027 23.6318 37.8365 23.2301C37.6703 22.8284 37.6271 22.3864 37.7122 21.9601C37.7973 21.5338 38.007 21.1424 38.3147 20.8353C38.6224 20.5282 39.0143 20.3193 39.4407 20.235C39.8672 20.1508 40.3091 20.1949 40.7104 20.3618C41.1118 20.5288 41.4546 20.8111 41.6955 21.1729C41.9364 21.5348 42.0645 21.96 42.0637 22.3947C42.0625 22.9766 41.8306 23.5343 41.4187 23.9454C41.0068 24.3565 40.4486 24.5874 39.8667 24.5874ZM64.142 24.5874C63.7073 24.5874 63.2824 24.4584 62.921 24.2168C62.5596 23.9752 62.278 23.6318 62.1118 23.2301C61.9457 22.8284 61.9024 22.3864 61.9876 21.9601C62.0727 21.5338 62.2823 21.1424 62.59 20.8353C62.8977 20.5282 63.2896 20.3193 63.7161 20.235C64.1425 20.1508 64.5844 20.1949 64.9858 20.3618C65.3871 20.5288 65.73 20.8111 65.9709 21.1729C66.2118 21.5348 66.3399 21.96 66.339 22.3947C66.3379 22.9766 66.1059 23.5343 65.694 23.9454C65.2821 24.3565 64.7239 24.5874 64.142 24.5874ZM25.6967 74.4077C25.6955 75.2443 25.8596 76.073 26.1793 76.8461C26.4991 77.6192 26.9683 78.3216 27.5601 78.913C28.1519 79.5044 28.8546 79.9731 29.628 80.2924C30.4013 80.6116 31.23 80.7751 32.0667 80.7734H36.283V93.7734C36.283 95.3369 36.9041 96.8365 38.0098 97.9421C39.1154 99.0477 40.6149 99.6689 42.1785 99.6689C43.7421 99.6689 45.2416 99.0477 46.3473 97.9421C47.4529 96.8365 48.074 95.3369 48.074 93.7734V80.7734H55.9347V93.7734C55.9347 95.3364 56.5556 96.8354 57.6608 97.9406C58.766 99.0458 60.265 99.6667 61.828 99.6667C63.391 99.6667 64.89 99.0458 65.9952 97.9406C67.1004 96.8354 67.7213 95.3364 67.7213 93.7734V80.7734H71.942C72.7776 80.7739 73.605 80.6098 74.3771 80.2903C75.1491 79.9708 75.8506 79.5023 76.4414 78.9114C77.0322 78.3206 77.5008 77.6191 77.8203 76.8471C78.1398 76.075 78.3039 75.2476 78.3033 74.412V36.2917H25.6967V74.4077ZM17.6063 35.2777C16.0433 35.28 14.545 35.9022 13.4401 37.0079C12.3353 38.1135 11.7142 39.6123 11.713 41.1754V65.741C11.713 66.5149 11.8654 67.2813 12.1616 67.9963C12.4578 68.7113 12.8919 69.361 13.4391 69.9082C13.9864 70.4555 14.6361 70.8896 15.3511 71.1858C16.0661 71.4819 16.8324 71.6344 17.6063 71.6344C18.3803 71.6344 19.1466 71.4819 19.8616 71.1858C20.5766 70.8896 21.2263 70.4555 21.7736 69.9082C22.3208 69.361 22.7549 68.7113 23.0511 67.9963C23.3472 67.2813 23.4997 66.5149 23.4997 65.741V41.1754C23.4974 39.6131 22.8757 38.1154 21.771 37.0107C20.6663 35.906 19.1687 35.2843 17.6063 35.282V35.2777ZM86.385 35.2777C84.822 35.28 83.3236 35.9022 82.2188 37.0079C81.114 38.1135 80.4928 39.6123 80.4917 41.1754V65.741C80.4917 66.5149 80.6441 67.2813 80.9403 67.9963C81.2365 68.7113 81.6706 69.361 82.2178 69.9082C82.7651 70.4555 83.4147 70.8896 84.1297 71.1858C84.8447 71.4819 85.6111 71.6344 86.385 71.6344C87.1589 71.6344 87.9253 71.4819 88.6403 71.1858C89.3553 70.8896 90.005 70.4555 90.5522 69.9082C91.0995 69.361 91.5336 68.7113 91.8297 67.9963C92.1259 67.2813 92.2783 66.5149 92.2783 65.741V41.1754C92.2761 39.6131 91.6544 38.1154 90.5497 37.0107C89.445 35.906 87.9473 35.2843 86.385 35.282V35.2777Z" fill="#EC3237"/>
</svg>
