<svg width="132" height="132" viewBox="0 0 132 132" fill="none" xmlns="http://www.w3.org/2000/svg">
<circle cx="66" cy="65.9417" r="46.5" transform="rotate(-37.7843 66 65.9417)" stroke="#6E6F6F"/>
<path d="M58.6477 56.4578L74.8457 77.3519" stroke="white" stroke-width="2" stroke-linecap="round" stroke-linejoin="round"/>
<path d="M55.9927 74.965L74.8457 77.3519L77.2326 58.4989" stroke="white" stroke-width="2" stroke-linecap="round" stroke-linejoin="round"/>
</svg>
