<svg width="75" height="75" viewBox="0 0 75 75" fill="none" xmlns="http://www.w3.org/2000/svg">
<path d="M5.635 55.51V68.635H18.76L57.47 29.89L44.345 16.765L5.635 55.51ZM74.27 59.395L59.395 74.27L41.195 56.07L47.39 49.875L50.89 53.375L59.535 44.695L64.505 49.665L59.395 54.635L63.105 58.135L68.075 53.235L74.27 59.395ZM18.27 33.04L0 14.875L14.875 0L21.035 6.195L12.39 14.875L16.135 18.585L24.745 9.905L29.715 14.875L24.745 19.81L28.245 23.31L18.27 33.04ZM67.62 19.635C68.985 18.27 68.985 16.135 67.62 14.7L59.43 6.65C58.135 5.285 55.86 5.285 54.495 6.65L48.055 13.055L61.18 26.18L67.62 19.635Z" fill="#1D1C28"/>
</svg>
