<svg width="74" height="74" viewBox="0 0 74 74" fill="none" xmlns="http://www.w3.org/2000/svg">
<mask id="mask0_36_669" style="mask-type:luminance" maskUnits="userSpaceOnUse" x="0" y="0" width="74" height="74">
<path fill-rule="evenodd" clip-rule="evenodd" d="M37 37V28.25L63.25 2L72 10.75L45.75 37H37Z" fill="white" stroke="white" stroke-width="4" stroke-linecap="round" stroke-linejoin="round"/>
<path d="M23 37H10.75C8.42936 37 6.20376 37.9219 4.56282 39.5628C2.92187 41.2038 2 43.4294 2 45.75C2 48.0706 2.92187 50.2962 4.56282 51.9372C6.20376 53.5781 8.42936 54.5 10.75 54.5H63.25C65.5706 54.5 67.7962 55.4219 69.4372 57.0628C71.0781 58.7038 72 60.9294 72 63.25C72 65.5706 71.0781 67.7962 69.4372 69.4372C67.7962 71.0781 65.5706 72 63.25 72H26.5" stroke="white" stroke-width="4" stroke-linecap="round" stroke-linejoin="round"/>
</mask>
<g mask="url(#mask0_36_669)">
<path d="M-5 -5H79V79H-5V-5Z" fill="black"/>
</g>
</svg>
